name,key,maxSpeed,maxAcceleration,accelerationStep,turnAcceleration,maxTurnSpeed,deceleration,soundSet
Solar Sails,SolarEngineBattleship,18,4.5,1,0.3,0.3,65,small_ship_engines
Solar Sails,SolarEngineBomber,42,15.8,1,2.1,1.5,25,small_ship_engines
Solar Sails,SolarEngineCarrier,24,4.5,1,0.6,0.3,40,small_ship_engines
Solar Sails,SolarEngineCorvette,36,9,1,1.5,0.9,25,small_ship_engines
Solar Sails,SolarEngineCruiser,30,4.5,1,0.6,0.3,40,small_ship_engines
Solar Sails,SolarEngineDestroyer,24,4.5,1,0.9,0.6,50,small_ship_engines
Solar Sails,SolarEngineFighte,60,45,300,4.5,1.5,25,small_ship_engines
Solar Sails,SolarEngineFrigat,42,13.5,30,1.2,0.6,30,small_ship_engines
Solid State Thrusters,SolidStateEngineBattleship,54,4.5,1,0.2,0.3,65,small_ship_engines
Solid State Thrusters,SolidStateEngineBomber,126,15.8,1,1.4,1.5,25,small_ship_engines
Solid State Thrusters,SolidStateEngineCarrier,72,4.5,1,0.4,0.3,40,small_ship_engines
Solid State Thrusters,SolidStateEngineCorvette,108,9,1,1,0.9,25,small_ship_engines
Solid State Thrusters,SolidStateEngineCruiser,90,4.5,1,0.4,0.3,40,small_ship_engines
Solid State Thrusters,SolidStateEngineDestroyer,72,4.5,1,0.6,0.6,50,small_ship_engines
Solid State Thrusters,SolidStateEngineFighte,180,45,300,3,1.5,25,small_ship_engines
Solid State Thrusters,SolidStateEngineFrigat,126,13.5,30,0.8,0.6,30,small_ship_engines
Mercury Ion Drive,MercuryEngineBattleship,45,22.5,1,0.3,0.2,65,small_ship_engines
Mercury Ion Drive,MercuryEngineBomber,105,79,1,2.1,1,25,small_ship_engines
Mercury Ion Drive,MercuryEngineCarrier,60,22.5,1,0.6,0.2,40,small_ship_engines
Mercury Ion Drive,MercuryEngineCorvette,90,45,1,1.5,0.6,25,small_ship_engines
Mercury Ion Drive,MercuryEngineCruiser,75,22.5,1,0.6,0.2,40,small_ship_engines
Mercury Ion Drive,MercuryEngineDestroyer,60,22.5,1,0.9,0.4,50,small_ship_engines
Mercury Ion Drive,MercuryEngineFighte,150,225,300,4.5,1,25,small_ship_engines
Mercury Ion Drive,MercuryEngineFrigat,105,67.5,30,1.2,0.4,30,small_ship_engines
Electromagnetic Drive,ElectromagneticEngineBattleship,36,36,1,0.5,0.3,65,small_ship_engines
Electromagnetic Drive,ElectromagneticEngineBomber,84,126.4,1,3.5,1.5,25,small_ship_engines
Electromagnetic Drive,ElectromagneticEngineCarrier,48,36,1,1,0.3,40,small_ship_engines
Electromagnetic Drive,ElectromagneticEngineCorvette,72,72,1,2.5,0.9,25,small_ship_engines
Electromagnetic Drive,ElectromagneticEngineCruiser,60,36,1,1,0.3,40,small_ship_engines
Electromagnetic Drive,ElectromagneticEngineDestroyer,48,36,1,1.5,0.6,50,small_ship_engines
Electromagnetic Drive,ElectromagneticEngineFighte,120,360,300,7.5,1.5,25,small_ship_engines
Electromagnetic Drive,ElectromagneticEngineFrigat,84,108,30,2,0.6,30,small_ship_engines
Nuclear Electric Drive,NuclearElectricEngineBattleship,45,31.5,1,0.5,0.3,65,small_ship_engines
Nuclear Electric Drive,NuclearElectricEngineBomber,105,110.6,1,3.5,1.5,25,small_ship_engines
Nuclear Electric Drive,NuclearElectricEngineCarrier,60,31.5,1,1,0.3,40,small_ship_engines
Nuclear Electric Drive,NuclearElectricEngineCorvette,90,63,1,2.5,0.9,25,small_ship_engines
Nuclear Electric Drive,NuclearElectricEngineCruiser,75,31.5,1,1,0.3,40,small_ship_engines
Nuclear Electric Drive,NuclearElectricEngineDestroyer,60,31.5,1,1.5,0.6,50,small_ship_engines
Nuclear Electric Drive,NuclearElectricEngineFighte,150,315,300,7.5,1.5,25,small_ship_engines
Nuclear Electric Drive,NuclearElectricEngineFrigat,105,94.5,30,2,0.6,30,small_ship_engines
Xenon Ion Drive,XenonEngineBattleship,72,18,1,0.6,0.3,65,small_ship_engines
Xenon Ion Drive,XenonEngineBomber,168,63.2,1,4.2,1.5,25,small_ship_engines
Xenon Ion Drive,XenonEngineCarrier,96,18,1,1.2,0.3,40,small_ship_engines
Xenon Ion Drive,XenonEngineCorvette,144,36,1,3,0.9,25,small_ship_engines
Xenon Ion Drive,XenonEngineCruiser,120,18,1,1.2,0.3,40,small_ship_engines
Xenon Ion Drive,XenonEngineDestroyer,96,18,1,1.8,0.6,50,small_ship_engines
Xenon Ion Drive,XenonEngineFighte,240,180,300,9,1.5,25,small_ship_engines
Xenon Ion Drive,XenonEngineFrigat,168,54,30,2.4,0.6,30,small_ship_engines
Argon Ion Engine,ArgonEngineBattleship,81,90,1,1.5,1.5,130,small_ship_engines
Argon Ion Engine,ArgonEngineBomber,189,316,1,10.5,7.5,50,small_ship_engines
Argon Ion Engine,ArgonEngineCarrier,108,90,1,3,1.5,80,small_ship_engines
Argon Ion Engine,ArgonEngineCorvette,162,180,1,7.5,4.5,50,small_ship_engines
Argon Ion Engine,ArgonEngineCruiser,135,90,1,3,1.5,80,small_ship_engines
Argon Ion Engine,ArgonEngineDestroyer,108,90,1,4.5,3,100,small_ship_engines
Argon Ion Engine,ArgonEngineFighter,270,900,700,22.5,7.5,50,small_ship_engines
Argon Ion Engine,ArgonEngineFrigate,189,270,30,6,3,60,small_ship_engines
Biomechanical Engines,BiomechanicalEnginesBattleship,45,54,1,0.7,0.3,65,small_ship_engines
Biomechanical Engines,BiomechanicalEnginesBomber,105,189.6,1,4.9,1.5,25,small_ship_engines
Biomechanical Engines,BiomechanicalEnginesCarrier,60,54,1,1.4,0.3,40,small_ship_engines
Biomechanical Engines,BiomechanicalEnginesCorvette,90,108,1,3.5,0.9,25,small_ship_engines
Biomechanical Engines,BiomechanicalEnginesCruiser,75,54,1,1.4,0.3,40,small_ship_engines
Biomechanical Engines,BiomechanicalEnginesDestroyer,60,54,1,2.1,0.6,50,small_ship_engines
Biomechanical Engines,BiomechanicalEnginesFighte,150,540,300,10.5,1.5,25,small_ship_engines
Biomechanical Engines,BiomechanicalEnginesFrigat,105,162,30,2.8,0.6,30,small_ship_engines
Thermonuclear Thrusters,ThermonuclearEnginesBattleship,135,49.5,1,0.4,0.3,65,small_ship_engines
Thermonuclear Thrusters,ThermonuclearEnginesBomber,315,173.8,1,2.8,1.5,25,small_ship_engines
Thermonuclear Thrusters,ThermonuclearEnginesCarrier,180,49.5,1,0.8,0.3,40,small_ship_engines
Thermonuclear Thrusters,ThermonuclearEnginesCorvette,270,99,1,2,0.9,25,small_ship_engines
Thermonuclear Thrusters,ThermonuclearEnginesCruiser,225,49.5,1,0.8,0.3,40,small_ship_engines
Thermonuclear Thrusters,ThermonuclearEnginesDestroyer,180,49.5,1,1.2,0.6,50,small_ship_engines
Thermonuclear Thrusters,ThermonuclearEnginesFighte,450,495,300,6,1.5,25,small_ship_engines
Thermonuclear Thrusters,ThermonuclearEnginesFrigat,315,148.5,30,1.6,0.6,30,small_ship_engines
Hydrogen Ion Engine,HydrogenEngineBattleship,81,45,1,0.6,0.4,65,small_ship_engines
Hydrogen Ion Engine,HydrogenEngineBomber,189,158,1,4.2,2,25,small_ship_engines
Hydrogen Ion Engine,HydrogenEngineCarrier,108,45,1,1.2,0.4,40,small_ship_engines
Hydrogen Ion Engine,HydrogenEngineCorvette,162,90,1,3,1.2,25,small_ship_engines
Hydrogen Ion Engine,HydrogenEngineCruiser,135,45,1,1.2,0.4,40,small_ship_engines
Hydrogen Ion Engine,HydrogenEngineDestroyer,108,45,1,1.8,0.8,50,small_ship_engines
Hydrogen Ion Engine,HydrogenEngineFighte,270,450,300,9,2,25,small_ship_engines
Hydrogen Ion Engine,HydrogenEngineFrigat,189,135,30,2.4,0.8,30,small_ship_engines
Plasma Thruster,PlasmaEngineBattleship,63,63,1,0.6,0.4,65,small_ship_engines
Plasma Thruster,PlasmaEngineBomber,147,221.2,1,4.2,2,25,small_ship_engines
Plasma Thruster,PlasmaEngineCarrier,84,63,1,1.2,0.4,40,small_ship_engines
Plasma Thruster,PlasmaEngineCorvette,126,126,1,3,1.2,25,small_ship_engines
Plasma Thruster,PlasmaEngineCruiser,105,63,1,1.2,0.4,40,small_ship_engines
Plasma Thruster,PlasmaEngineDestroyer,84,63,1,1.8,0.8,50,small_ship_engines
Plasma Thruster,PlasmaEngineFighte,210,630,300,9,2,25,small_ship_engines
Plasma Thruster,PlasmaEngineFrigat,147,189,30,2.4,0.8,30,small_ship_engines
Dark Matter Engine,DarkMatterEngineBattleship,90,45,1,1,1,65,small_ship_engines
Dark Matter Engine,DarkMatterEngineBomber,210,158,1,7,5,25,small_ship_engines
Dark Matter Engine,DarkMatterEngineCarrier,120,45,1,2,1,40,small_ship_engines
Dark Matter Engine,DarkMatterEngineCorvette,180,90,1,5,3,25,small_ship_engines
Dark Matter Engine,DarkMatterEngineCruiser,150,45,1,2,1,40,small_ship_engines
Dark Matter Engine,DarkMatterEngineDestroyer,120,45,1,3,2,50,small_ship_engines
Dark Matter Engine,DarkMatterEngineFighter,300,450,300,15,5,25,small_ship_engines
Dark Matter Engine,DarkMatterEngineFrigate,210,135,30,4,2,30,small_ship_engines
Nanodynamic Drives,NanodynamicEnginesBattleship,135,31.5,1,1,0.8,65,small_ship_engines
Nanodynamic Drives,NanodynamicEnginesBomber,315,110.6,1,7,4,25,small_ship_engines
Nanodynamic Drives,NanodynamicEnginesCarrier,180,31.5,1,2,0.8,40,small_ship_engines
Nanodynamic Drives,NanodynamicEnginesCorvette,270,63,1,5,2.4,25,small_ship_engines
Nanodynamic Drives,NanodynamicEnginesCruiser,225,31.5,1,2,0.8,40,small_ship_engines
Nanodynamic Drives,NanodynamicEnginesDestroyer,180,31.5,1,3,1.6,50,small_ship_engines
Nanodynamic Drives,NanodynamicEnginesFighte,450,315,300,15,4,25,small_ship_engines
Nanodynamic Drives,NanodynamicEnginesFrigat,315,94.5,30,4,1.6,30,small_ship_engines
Plasmagnetic Thruster,MagnetoplasmadynamicEngineBattleship,135,33.75,1,1,1,65,small_ship_engines
Plasmagnetic Thruster,MagnetoplasmadynamicEngineBomber,315,118.5,1,7,5,25,small_ship_engines
Plasmagnetic Thruster,MagnetoplasmadynamicEngineCarrier,180,33.75,1,2,1,40,small_ship_engines
Plasmagnetic Thruster,MagnetoplasmadynamicEngineCorvette,270,67.5,1,5,3,25,small_ship_engines
Plasmagnetic Thruster,MagnetoplasmadynamicEngineCruiser,225,33.75,1,2,1,40,small_ship_engines
Plasmagnetic Thruster,MagnetoplasmadynamicEngineDestroyer,180,33.75,1,3,2,50,small_ship_engines
Plasmagnetic Thruster,MagnetoplasmadynamicEngineFighter,450,337.5,300,15,5,25,small_ship_engines
Plasmagnetic Thruster,MagnetoplasmadynamicEngineFrigate,315,101.25,30,4,2,30,small_ship_engines
Solar Sails,SolarEngineOmen,18,2.2,1,0.3,0.3,65,small_ship_engines
Solar Sails,SolarEngineStriker,54,15.8,1,2.1,1.5,25,small_ship_engines
Solar Sails,SolarEngineHarbinger,36,4.5,1,0.6,0.3,40,small_ship_engines
Solar Sails,SolarEngineCleric,48,9,1,1.5,0.9,25,small_ship_engines
Solar Sails,SolarEngineRegent,18,2.5,1,0.3,0.3,40,small_ship_engines
Solar Sails,SolarEngineDominion,36,2.2,1,0.9,0.6,50,small_ship_engines
Solar Sails,SolarEngineAscendant,66,27,1,3,2.1,25,none
Solar Sails,SolarEngineCavalier,42,6.75,1,1.2,0.6,30,small_ship_engines
Solid State Thrusters,SolidStateEngineOmen,54,2.2,1,0.2,0.3,65,small_ship_engines
Solid State Thrusters,SolidStateEngineStriker,162,15.8,1,1.4,1.5,25,small_ship_engines
Solid State Thrusters,SolidStateEngineHarbinger,108,4.5,1,0.4,0.3,40,small_ship_engines
Solid State Thrusters,SolidStateEngineCleric,144,9,1,1,0.9,25,small_ship_engines
Solid State Thrusters,SolidStateEngineRegent,54,2.5,1,0.2,0.3,40,small_ship_engines
Solid State Thrusters,SolidStateEngineDominion,108,2.2,1,0.6,0.6,50,small_ship_engines
Solid State Thrusters,SolidStateEngineAscendant,198,27,1,2,2.1,25,none
Solid State Thrusters,SolidStateEngineCavalier,126,6.75,1,0.8,0.6,30,small_ship_engines
Mercury Ion Drive,MercuryEngineOmen,45,11,1,0.3,0.2,65,small_ship_engines
Mercury Ion Drive,MercuryEngineStriker,135,79,1,2.1,1,25,small_ship_engines
Mercury Ion Drive,MercuryEngineHarbinger,90,22.5,1,0.6,0.2,40,small_ship_engines
Mercury Ion Drive,MercuryEngineCleric,120,45,1,1.5,0.6,25,small_ship_engines
Mercury Ion Drive,MercuryEngineRegent,45,12.5,1,0.3,0.2,40,small_ship_engines
Mercury Ion Drive,MercuryEngineDominion,90,11,1,0.9,0.4,50,small_ship_engines
Mercury Ion Drive,MercuryEngineAscendant,165,135,1,3,1.4,25,none
Mercury Ion Drive,MercuryEngineCavalier,105,33.75,1,1.2,0.4,30,small_ship_engines
Electromagnetic Drive,ElectromagneticEngineOmen,36,17.6,1,0.5,0.3,65,small_ship_engines
Electromagnetic Drive,ElectromagneticEngineStriker,108,126.4,1,3.5,1.5,25,small_ship_engines
Electromagnetic Drive,ElectromagneticEngineHarbinger,72,36,1,1,0.3,40,small_ship_engines
Electromagnetic Drive,ElectromagneticEngineCleric,96,72,1,2.5,0.9,25,small_ship_engines
Electromagnetic Drive,ElectromagneticEngineRegent,36,20,1,0.5,0.3,40,small_ship_engines
Electromagnetic Drive,ElectromagneticEngineDominion,72,17.6,1,1.5,0.6,50,small_ship_engines
Electromagnetic Drive,ElectromagneticEngineAscendant,132,216,1,5,2.1,25,none
Electromagnetic Drive,ElectromagneticEngineCavalier,84,54,1,2,0.6,30,small_ship_engines
Nuclear Electric Drive,NuclearElectricEngineOmen,45,15.4,1,0.5,0.3,65,small_ship_engines
Nuclear Electric Drive,NuclearElectricEngineStriker,135,110.6,1,3.5,1.5,25,small_ship_engines
Nuclear Electric Drive,NuclearElectricEngineHarbinger,90,31.5,1,1,0.3,40,small_ship_engines
Nuclear Electric Drive,NuclearElectricEngineCleric,120,63,1,2.5,0.9,25,small_ship_engines
Nuclear Electric Drive,NuclearElectricEngineRegent,45,17.5,1,0.5,0.3,40,small_ship_engines
Nuclear Electric Drive,NuclearElectricEngineDominion,90,15.4,1,1.5,0.6,50,small_ship_engines
Nuclear Electric Drive,NuclearElectricEngineAscendant,165,189,1,5,2.1,25,none
Nuclear Electric Drive,NuclearElectricEngineCavalier,105,47.25,1,2,0.6,30,small_ship_engines
Xenon Ion Drive,XenonEngineOmen,72,8.8,1,0.6,0.3,65,small_ship_engines
Xenon Ion Drive,XenonEngineStriker,216,63.2,1,4.2,1.5,25,small_ship_engines
Xenon Ion Drive,XenonEngineHarbinger,144,18,1,1.2,0.3,40,small_ship_engines
Xenon Ion Drive,XenonEngineCleric,192,36,1,3,0.9,25,small_ship_engines
Xenon Ion Drive,XenonEngineRegent,72,10,1,0.6,0.3,40,small_ship_engines
Xenon Ion Drive,XenonEngineDominion,144,8.8,1,1.8,0.6,50,small_ship_engines
Xenon Ion Drive,XenonEngineAscendant,264,108,1,6,2.1,25,none
Xenon Ion Drive,XenonEngineCavalier,168,27,1,2.4,0.6,30,small_ship_engines
Argon Ion Engine,ArgonEngineOmen,81,44,1,1.5,1.5,130,small_ship_engines
Argon Ion Engine,ArgonEngineStriker,243,316,1,10.5,7.5,50,small_ship_engines
Argon Ion Engine,ArgonEngineHarbinger,162,90,1,3,1.5,80,small_ship_engines
Argon Ion Engine,ArgonEngineCleric,216,180,1,7.5,4.5,50,small_ship_engines
Argon Ion Engine,ArgonEngineRegent,81,50,1,1.5,1.5,80,small_ship_engines
Argon Ion Engine,ArgonEngineDominion,162,44,1,4.5,3,100,small_ship_engines
Argon Ion Engine,ArgonEngineAscendant,297,540,1,15,10.5,50,none
Argon Ion Engine,ArgonEngineCavalier,189,135,1,6,3,60,small_ship_engines
Biomechanical Engines,BiomechanicalEnginesOmen,45,26.4,1,0.7,0.3,65,small_ship_engines
Biomechanical Engines,BiomechanicalEnginesStriker,135,189.6,1,4.9,1.5,25,small_ship_engines
Biomechanical Engines,BiomechanicalEnginesHarbinger,90,54,1,1.4,0.3,40,small_ship_engines
Biomechanical Engines,BiomechanicalEnginesCleric,120,108,1,3.5,0.9,25,small_ship_engines
Biomechanical Engines,BiomechanicalEnginesRegent,45,30,1,0.7,0.3,40,small_ship_engines
Biomechanical Engines,BiomechanicalEnginesDominion,90,26.4,1,2.1,0.6,50,small_ship_engines
Biomechanical Engines,BiomechanicalEnginesAscendant,165,324,1,7,2.1,25,none
Biomechanical Engines,BiomechanicalEnginesCavalier,105,81,1,2.8,0.6,30,small_ship_engines
Thermonuclear Thrusters,ThermonuclearEnginesOmen,135,24.2,1,0.4,0.3,65,small_ship_engines
Thermonuclear Thrusters,ThermonuclearEnginesStriker,405,173.8,1,2.8,1.5,25,small_ship_engines
Thermonuclear Thrusters,ThermonuclearEnginesHarbinger,270,49.5,1,0.8,0.3,40,small_ship_engines
Thermonuclear Thrusters,ThermonuclearEnginesCleric,360,99,1,2,0.9,25,small_ship_engines
Thermonuclear Thrusters,ThermonuclearEnginesRegent,135,27.5,1,0.4,0.3,40,small_ship_engines
Thermonuclear Thrusters,ThermonuclearEnginesDominion,270,24.2,1,1.2,0.6,50,small_ship_engines
Thermonuclear Thrusters,ThermonuclearEnginesAscendant,495,297,1,4,2.1,25,none
Thermonuclear Thrusters,ThermonuclearEnginesCavalier,315,74.25,1,1.6,0.6,30,small_ship_engines
Hydrogen Ion Engine,HydrogenEngineOmen,81,22,1,0.6,0.4,65,small_ship_engines
Hydrogen Ion Engine,HydrogenEngineStriker,243,158,1,4.2,2,25,small_ship_engines
Hydrogen Ion Engine,HydrogenEngineHarbinger,162,45,1,1.2,0.4,40,small_ship_engines
Hydrogen Ion Engine,HydrogenEngineCleric,216,90,1,3,1.2,25,small_ship_engines
Hydrogen Ion Engine,HydrogenEngineRegent,81,25,1,0.6,0.4,40,small_ship_engines
Hydrogen Ion Engine,HydrogenEngineDominion,162,22,1,1.8,0.8,50,small_ship_engines
Hydrogen Ion Engine,HydrogenEngineAscendant,297,270,1,6,2.8,25,none
Hydrogen Ion Engine,HydrogenEngineCavalier,189,67.5,1,2.4,0.8,30,small_ship_engines
Plasma Thruster,PlasmaEngineOmen,63,30.8,1,0.6,0.4,65,small_ship_engines
Plasma Thruster,PlasmaEngineStriker,189,221.2,1,4.2,2,25,small_ship_engines
Plasma Thruster,PlasmaEngineHarbinger,126,63,1,1.2,0.4,40,small_ship_engines
Plasma Thruster,PlasmaEngineCleric,168,126,1,3,1.2,25,small_ship_engines
Plasma Thruster,PlasmaEngineRegent,63,35,1,0.6,0.4,40,small_ship_engines
Plasma Thruster,PlasmaEngineDominion,126,30.8,1,1.8,0.8,50,small_ship_engines
Plasma Thruster,PlasmaEngineAscendant,231,378,1,6,2.8,25,none
Plasma Thruster,PlasmaEngineCavalier,147,94.5,1,2.4,0.8,30,small_ship_engines
Dark Matter Engine,DarkMatterEngineOmen,90,22,1,1,1,65,small_ship_engines
Dark Matter Engine,DarkMatterEngineStriker,270,158,1,7,5,25,small_ship_engines
Dark Matter Engine,DarkMatterEngineHarbinger,180,45,1,2,1,40,small_ship_engines
Dark Matter Engine,DarkMatterEngineCleric,240,90,1,5,3,25,small_ship_engines
Dark Matter Engine,DarkMatterEngineRegent,90,25,1,1,1,40,small_ship_engines
Dark Matter Engine,DarkMatterEngineDominion,180,22,1,3,2,50,small_ship_engines
Dark Matter Engine,DarkMatterEngineAscendant,330,270,1,10,7,25,none
Dark Matter Engine,DarkMatterEngineCavalier,210,67.5,1,4,2,30,small_ship_engines
Nanodynamic Drives,NanodynamicEnginesOmen,135,15.4,1,1,0.8,65,small_ship_engines
Nanodynamic Drives,NanodynamicEnginesStriker,405,110.6,1,7,4,25,small_ship_engines
Nanodynamic Drives,NanodynamicEnginesHarbinger,270,31.5,1,2,0.8,40,small_ship_engines
Nanodynamic Drives,NanodynamicEnginesCleric,360,63,1,5,2.4,25,small_ship_engines
Nanodynamic Drives,NanodynamicEnginesRegent,135,17.5,1,1,0.8,40,small_ship_engines
Nanodynamic Drives,NanodynamicEnginesDominion,270,15.4,1,3,1.6,50,small_ship_engines
Nanodynamic Drives,NanodynamicEnginesAscendant,495,189,1,10,5.6,25,none
Nanodynamic Drives,NanodynamicEnginesCavalier,315,47.25,1,4,1.6,30,small_ship_engines
Magnetoplasmadynamic Thruster,MagnetoplasmadynamicEngineOmen,135,16.5,1,1,1,65,small_ship_engines
Magnetoplasmadynamic Thruster,MagnetoplasmadynamicEngineStriker,405,118.5,1,7,5,25,small_ship_engines
Magnetoplasmadynamic Thruster,MagnetoplasmadynamicEngineHarbinger,270,33.75,1,2,1,40,small_ship_engines
Magnetoplasmadynamic Thruster,MagnetoplasmadynamicEngineCleric,360,67.5,1,5,3,25,small_ship_engines
Magnetoplasmadynamic Thruster,MagnetoplasmadynamicEngineRegent,135,18.75,1,1,1,40,small_ship_engines
Magnetoplasmadynamic Thruster,MagnetoplasmadynamicEngineDominion,270,16.5,1,3,2,50,small_ship_engines
Magnetoplasmadynamic Thruster,MagnetoplasmadynamicEngineAscendant,495,202.5,1,10,7,25,none
Magnetoplasmadynamic Thruster,MagnetoplasmadynamicEngineCavalier,315,50.625,1,4,2,30,small_ship_engines
,,,,,,,,
