^C:\USERS\ANDREW\APPDATA\LOCAL\TEMPORARY PROJECTS\SWIFTRIVER\PROPERTIES\RESOURCES.RESX
^C:\USERS\ANDREW\APPDATA\LOCAL\TEMPORARY PROJECTS\SWIFTRIVER\FRMADDEXPORTER.RESX
^C:\USERS\ANDREW\APPDATA\LOCAL\TEMPORARY PROJECTS\SWIFTRIVER\FRMMAIN.RESX
^F:\REPOSITORIES\GIT\CLEGIT\TOOLS\SWIFTRIVER\SWIFTRIVER\PROPERTIES\RESOURCES.RESX
^F:\REPOSITORIES\GIT\CLEGIT\TOOLS\SWIFTRIVER\SWIFTRIVER\FRMADDEXPORTER.RESX
^F:\REPOSITORIES\GIT\CLEGIT\TOOLS\SWIFTRIVER\SWIFTRIVER\FRMEXPORTFILEMULTIPLE.RESX
^F:\REPOSITORIES\GIT\CLEGIT\TOOLS\SWIFTRIVER\SWIFTRIVER\FRMEXPORTFILESINGLE.RESX
^F:\REPOSITORIES\GIT\CLEGIT\TOOLS\SWIFTRIVER\SWIFTRIVER\FRMMAIN.RESX
^F:\REPOSITORIES\GIT\CLEGIT\TOOLS\DEVELOPMENT\SWIFTRIVER\SWIFTRIVER\FRMADDEXPORTER.RESX
^F:\REPOSITORIES\GIT\CLEGIT\TOOLS\DEVELOPMENT\SWIFTRIVER\SWIFTRIVER\PROPERTIES\RESOURCES.RESX
^F:\REPOSITORIES\GIT\CLEGIT\TOOLS\DEVELOPMENT\SWIFTRIVER\SWIFTRIVER\FRMEXPORTFILEMULTIPLE.RESX
^C:\REPOSITORIES\CLEGIT\TOOLS\DEVELOPMENT\SWIFTRIVER\SWIFTRIVER\FRMADDEXPORTER.RESX
^C:\REPOSITORIES\CLEGIT\TOOLS\DEVELOPMENT\SWIFTRIVER\SWIFTRIVER\FRMEXPORTFILEMULTIPLE.RESX
^C:\REPOSITORIES\CLEGIT\TOOLS\DEVELOPMENT\SWIFTRIVER\SWIFTRIVER\FRMEXPORTFILESINGLE.RESX
^C:\REPOSITORIES\CLEGIT\TOOLS\DEVELOPMENT\SWIFTRIVER\SWIFTRIVER\FRMMAIN.RESX
^C:\REPOSITORIES\CLEGIT\TOOLS\DEVELOPMENT\SWIFTRIVER\SWIFTRIVER\PROPERTIES\RESOURCES.RESX
^F:\REPOSITORIES\GIT\CLEGIT\TOOLS\DEVELOPMENT\SWIFTRIVER\SWIFTRIVER\FRMEXPORTFILESINGLE.RESX
^F:\REPOSITORIES\GIT\CLEGIT\TOOLS\DEVELOPMENT\SWIFTRIVER\SWIFTRIVER\FRMMAIN.RESX
